auteur,nothing,nothing again,prix,,
emma goldman,de l'amour et des bombes,versaille,,attention produit indisponible sur chapitre,attention les cases suivantes sont lues
ernest hemingway,le vieil homme et la mer,gallimard,"5,6",,
